<?xml version="1.0" encoding="iso-8859-1"?>
<!-- Generator: Adobe Illustrator 22.0.1, SVG Export Plug-In . SVG Version: 6.00 Build 0)  -->
<svg version="1.1" id="Capa_1" xmlns="http://www.w3.org/2000/svg" xmlns:xlink="http://www.w3.org/1999/xlink" x="0px" y="0px"
	 viewBox="-49 141 512 512" style="enable-background:new -49 141 512 512;" xml:space="preserve">
<path style="fill:#3A4B58;" d="M337.689,574.479c-35.587,0-64.538-28.951-64.538-64.538s28.951-64.538,64.538-64.538
	s64.538,28.951,64.538,64.538C402.227,545.528,373.282,574.479,337.689,574.479z M337.689,477.672
	c-17.796,0-32.269,14.473-32.269,32.269s14.473,32.269,32.269,32.269s32.269-14.473,32.269-32.269S355.485,477.672,337.689,477.672z
	"/>
<path style="fill:#3A4B58;" d="M117.185,574.479c-35.587,0-64.538-28.951-64.538-64.538s28.951-64.538,64.538-64.538
	s64.538,28.951,64.538,64.538C181.723,545.528,152.772,574.479,117.185,574.479z M117.185,477.672
	c-17.796,0-32.269,14.473-32.269,32.269s14.473,32.269,32.269,32.269s32.269-14.473,32.269-32.269S134.976,477.672,117.185,477.672z
	"/>
<path style="fill:#3A4B58;" d="M400.716,371.443l-43.934-87.384h-75.025V251.79h84.975c6.099,0,11.676,3.437,14.419,8.885
	l48.403,96.269L400.716,371.443z"/>
<rect x="167.202" y="494.345" style="fill:#3A4B58;" width="122.084" height="32.269"/>
<path style="fill:#3A4B58;" d="M68.782,526.613H12.849c-8.912,0-16.134-7.223-16.134-16.134c0-8.912,7.223-16.134,16.134-16.134
	h55.933c8.912,0,16.134,7.223,16.134,16.134C84.916,519.391,77.693,526.613,68.782,526.613z"/>
<path style="fill:#3A4B58;" d="M446.866,526.613h-60.773c-8.912,0-16.134-7.223-16.134-16.134c0-8.912,7.223-16.134,16.134-16.134
	h44.639v-83.211l-23.497-30.268H281.756c-8.912,0-16.134-7.223-16.134-16.134V251.79H12.849c-8.912,0-16.134-7.223-16.134-16.134
	s7.223-16.134,16.134-16.134h268.908c8.912,0,16.134,7.223,16.134,16.134v112.941h117.244c4.986,0,9.691,2.302,12.741,6.239
	l31.736,40.874c2.194,2.829,3.388,6.314,3.388,9.896v104.874C463,519.391,455.777,526.613,446.866,526.613z"/>
<path style="fill:#3A4B58;" d="M67.706,444.866H-6.513c-8.912,0-16.134-7.223-16.134-16.134c0-8.912,7.223-16.134,16.134-16.134
	h74.218c8.912,0,16.134,7.223,16.134,16.134C83.84,437.643,76.617,444.866,67.706,444.866z"/>
<path style="fill:#3A4B58;" d="M104.815,381.403H-32.866c-8.912,0-16.134-7.223-16.134-16.134c0-8.912,7.223-16.134,16.134-16.134
	h137.681c8.912,0,16.134,7.223,16.134,16.134C120.95,374.181,113.727,381.403,104.815,381.403z"/>
<path style="fill:#3A4B58;" d="M131.168,317.941H-6.513c-8.912,0-16.134-7.223-16.134-16.134s7.223-16.134,16.134-16.134h137.681
	c8.912,0,16.134,7.223,16.134,16.134S140.08,317.941,131.168,317.941z"/>
<g>
	<path style="fill:#3A4B58;" d="M339.128,414.342c-2.657,0-14.677,0-14.677,0v14.375h1.655h2.56h1.655v-8.509h8.807
		c1.684,0,1.822,0,3.409,0.881l13.758,7.628h12.103c0,0-20.545-11.395-23.018-12.763
		C342.908,414.589,341.788,414.342,339.128,414.342z"/>
	<polygon style="fill:#3A4B58;" points="306.98,415.995 306.98,418.554 306.98,420.208 315.508,420.208 315.508,428.736 
		317.163,428.736 319.722,428.736 321.374,428.736 321.374,414.342 306.98,414.342 	"/>
	<path style="fill:#3A4B58;" d="M345.381,409.239c2.473-1.368,23.018-12.759,23.018-12.759h-12.103l-13.758,7.624
		c-1.587,0.878-1.726,0.878-3.409,0.878h-8.807v-8.502h-1.655h-2.56h-1.655v14.371c0,0,12.019,0,14.677,0
		C341.788,410.851,342.908,410.607,345.381,409.239z"/>
	<polygon style="fill:#3A4B58;" points="317.163,396.457 315.508,396.457 315.508,404.982 306.98,404.982 306.98,406.64 
		306.98,409.198 306.98,410.851 321.374,410.851 321.374,396.457 319.722,396.457 	"/>
</g>
</svg>
