<?xml version="1.0" encoding="iso-8859-1"?>
<!-- Generator: Adobe Illustrator 22.0.1, SVG Export Plug-In . SVG Version: 6.00 Build 0)  -->
<svg version="1.1" id="Capa_1" xmlns="http://www.w3.org/2000/svg" xmlns:xlink="http://www.w3.org/1999/xlink" x="0px" y="0px"
	 viewBox="-49 141 512 512" style="enable-background:new -49 141 512 512;" xml:space="preserve">
<path style="fill:#3A4B58;" d="M323.967,237.5h-58c-23.983,0-43.5,19.517-43.5,43.5c0,5.085,0.889,9.966,2.494,14.5h-34.945
	c1.605-4.534,2.484-9.415,2.484-14.5c0-23.983-19.517-43.5-43.5-43.5H91c-72.49,0-131.467,58.541-131.467,130.5v58
	c0,71.959,58.976,130.5,131.467,130.5h232.967c71.959,0,130.5-58.541,130.5-130.5v-58C454.467,296.041,395.925,237.5,323.967,237.5z
	 M236,469.5h-87c-8.004,0-14.5,6.496-14.5,14.5s6.496,14.5,14.5,14.5h58c7.994,0,14.5,6.506,14.5,14.5s-6.506,14.5-14.5,14.5H91
	c-56.502,0-102.467-45.53-102.467-101.5v-58c0-55.97,45.965-101.5,102.467-101.5h58c7.994,0,14.5,6.506,14.5,14.5
	s-6.506,14.5-14.5,14.5H91c-8.004,0-14.5,6.496-14.5,14.5s6.496,14.5,14.5,14.5h145c7.994,0,14.5,6.506,14.5,14.5
	c0,7.994-6.506,14.5-14.5,14.5h-87c-8.004,0-14.5,6.496-14.5,14.5s6.496,14.5,14.5,14.5h87c7.994,0,14.5,6.506,14.5,14.5
	s-6.506,14.5-14.5,14.5h-87c-8.004,0-14.5,6.496-14.5,14.5s6.496,14.5,14.5,14.5h87c7.994,0,14.5,6.506,14.5,14.5
	S243.994,469.5,236,469.5z M425.467,426c0,55.97-45.53,101.5-101.5,101.5h-75.961c1.605-4.534,2.494-9.415,2.494-14.5
	c0-5.665-1.102-11.068-3.074-16.037C265.889,491.936,279.5,475.029,279.5,455c0-11.136-4.205-21.296-11.107-29
	c6.902-7.704,11.107-17.864,11.107-29s-4.205-21.296-11.107-29c6.902-7.704,11.107-17.864,11.107-29c0-5.085-0.889-9.966-2.494-14.5
	h32.461V339c0,27.115,10.556,52.606,29.725,71.775c5.655,5.655,14.85,5.662,20.513,0c5.665-5.665,5.665-14.848,0-20.513
	c-13.698-13.688-21.238-31.9-21.238-51.262v-29c0-8.004-6.496-14.5-14.5-14.5h-58c-7.994,0-14.5-6.506-14.5-14.5
	s6.506-14.5,14.5-14.5h58c55.97,0,101.5,45.53,101.5,101.5V426z"/>
</svg>
