config_id,scope,scope_id,path,value
2131,default,0,mageworx_seo/seocrosslinks/default_destination,NULL
2611,default,0,mageworx_seo/base/use_next_prev,1
2612,default,0,mageworx_seo/base/robots/https_robots,NULL
2613,default,0,mageworx_seo/base/robots/noindex_follow_pages,NULL
2614,default,0,mageworx_seo/base/robots/noindex_follow_user_pages,NULL
2615,default,0,mageworx_seo/base/robots/noindex_nofollow_user_pages,NULL
2616,default,0,mageworx_seo/base/robots/category_filter_to_noindex,0
2617,default,0,mageworx_seo/base/robots/count_filters_for_noindex,NULL
2618,default,0,mageworx_seo/base/robots/attribute_settings,NULL
2619,default,0,mageworx_seo/base/robots/robots_for_ln_multiple,1
2620,default,0,mageworx_seo/base/canonical/use_canonical,1
2621,default,0,mageworx_seo/base/canonical/disable_by_robots,0
2622,default,0,mageworx_seo/base/canonical/canonical_ignore_pages,NULL
2623,default,0,mageworx_seo/base/canonical/cross_domain_store,NULL
2624,default,0,mageworx_seo/base/canonical/cross_domain_url,NULL
2625,default,0,mageworx_seo/base/canonical/associated_types,NULL
2626,default,0,mageworx_seo/base/canonical/trailing_slash_home_page,0
2627,default,0,mageworx_seo/base/canonical/trailing_slash,1
2628,default,0,mageworx_seo/base/canonical/use_pager_in_canonical,1
2629,default,0,mageworx_seo/base/canonical/canonical_for_ln,0
2630,default,0,mageworx_seo/base/hreflangs/scope,0
2631,default,0,mageworx_seo/base/hreflangs/enabled,0
2632,default,0,mageworx_seo/base/hreflangs/x_default_website,NULL
2633,default,0,mageworx_seo/base/hreflangs/cms_relation_way,0
2634,default,0,mageworx_seo/extended/meta/pager_in_title,beginning
2635,default,0,mageworx_seo/extended/meta/pager_in_description,beginning
2636,default,0,mageworx_seo/extended/meta/cut_title_prefix_suffix,0
2637,default,0,mageworx_seo/extended/meta/cut_prefix_suffix_pages,NULL
2638,default,0,mageworx_seo/extended/meta/layered_filters_in_title,1
2639,default,0,mageworx_seo/extended/meta/layered_filters_in_description,1
2640,default,0,mageworx_seo/breadcrumbs/enabled,1
2641,default,0,mageworx_seo/breadcrumbs/by_category_priority,0
2642,default,0,mageworx_seo/breadcrumbs/type,0
2643,default,0,mageworx_seo/markup/product/rs_enabled,1
2644,default,0,mageworx_seo/markup/product/og_enabled,1
2645,default,0,mageworx_seo/markup/product/tw_enabled,0
2646,default,0,mageworx_seo/markup/product/best_rating,4
2647,default,0,mageworx_seo/markup/product/description_code,description
2648,default,0,mageworx_seo/markup/product/sku_enabled,1
2649,default,0,mageworx_seo/markup/product/sku_code,sku
2650,default,0,mageworx_seo/markup/product/category_enabled,1
2651,default,0,mageworx_seo/markup/product/category_deepest,0
2652,default,0,mageworx_seo/markup/product/color_enabled,1
2653,default,0,mageworx_seo/markup/product/color_code,color
2654,default,0,mageworx_seo/markup/product/manufacturer_enabled,1
2655,default,0,mageworx_seo/markup/product/manufacturer_code,manufacturer
2656,default,0,mageworx_seo/markup/product/brand_enabled,1
2657,default,0,mageworx_seo/markup/product/brand_code,manufacturer
2658,default,0,mageworx_seo/markup/product/model_enabled,0
2659,default,0,mageworx_seo/markup/product/gtin_enabled,0
2660,default,0,mageworx_seo/markup/product/weight_enabled,1
2661,default,0,mageworx_seo/markup/product/condition_enabled,0
2662,default,0,mageworx_seo/markup/product/custom_prorerty_enabled,0
2663,default,0,mageworx_seo/markup/product/custom_prorerties,NULL
2664,default,0,mageworx_seo/markup/category/rs_enabled,1
2665,default,0,mageworx_seo/markup/category/og_enabled,1
2666,default,0,mageworx_seo/markup/category/add_product_offers,0
2667,default,0,mageworx_seo/markup/category/robots_restriction,0
2668,default,0,mageworx_seo/markup/page/og_enabled,1
2669,default,0,mageworx_seo/markup/page/tw_enabled,0
2670,default,0,mageworx_seo/markup/website/rs_enabled,0
2671,default,0,mageworx_seo/markup/website/og_enabled,1
2672,default,0,mageworx_seo/markup/website/description,"Comfort shoe technology so powerful, it's patented. The breakthrough KURUSOLE gives you unsurpassed comfort and support. KURU let's you do more, be fit and more healthy for maximum happiness."
2673,default,0,mageworx_seo/markup/website/tw_enabled,0
2674,default,0,mageworx_seo/markup/website/name,"World's Most Comfortable Shoes from KURU Footwear"
2675,default,0,mageworx_seo/markup/seller/rs_enabled,1
2676,default,0,mageworx_seo/markup/seller/type,LocalBusiness
2677,default,0,mageworx_seo/markup/seller/name,"KURU Footwear"
2678,default,0,mageworx_seo/markup/seller/description,"Comfort shoe technology so powerful, it's patented. The breakthrough KURUSOLE gives you unsurpassed comfort and support. KURU let's you do more, be fit and more healthy for maximum happiness."
2679,default,0,mageworx_seo/markup/seller/same_as_links,"https://www.facebook.com/Kuru-Footwear-1374597129263042
https://www.instagram.com/kurufootwear
https://twitter.com/kurufootwear"
2680,default,0,mageworx_seo/markup/seller/phone,"(877) 211-5878"
2681,default,0,mageworx_seo/markup/seller/fax,NULL
2682,default,0,mageworx_seo/markup/seller/email,gurus@kurufootwear.com
2683,default,0,mageworx_seo/markup/seller/location,"40.676099,-111.9063674"
2684,default,0,mageworx_seo/markup/seller/region,UT
2685,default,0,mageworx_seo/markup/seller/street,"4416 S Century Dr"
2686,default,0,mageworx_seo/markup/seller/post_code,84123
2687,default,0,mageworx_seo/markup/seller/price_range,NULL
2688,default,0,mageworx_seo/markup/seller/image,NULL
2689,default,0,mageworx_seo/markup/breadcrumbs/rs_enabled,1
2690,default,0,mageworx_seo/markup/common/tw_username,kurufootwear
2691,default,0,mageworx_seo/urls/category/use_in_attribute,0
2692,default,0,mageworx_seo/urls/category/use_in_pager,0
2693,default,0,mageworx_seo/urls/category/use_invert_redirect,0
2694,default,0,mageworx_seo/seoredirects/deleted_product/enabled,0
2695,default,0,mageworx_seo/seoredirects/deleted_product/redirect_type,301
2696,default,0,mageworx_seo/seoredirects/deleted_product/redirect_target,0
2697,default,0,mageworx_seo/seoredirects/deleted_product/count_stable_day,NULL
2698,default,0,mageworx_seo/html_sitemap/show_stores,0
2699,default,0,mageworx_seo/html_sitemap/show_categories,1
2700,default,0,mageworx_seo/html_sitemap/category_max_depth,NULL
2701,default,0,mageworx_seo/html_sitemap/show_products,1
2702,default,0,mageworx_seo/html_sitemap/use_cat_display_mode,1
2703,default,0,mageworx_seo/html_sitemap/product_url_length,1
2704,default,0,mageworx_seo/html_sitemap/cat_prod_sort_order,1
2705,default,0,mageworx_seo/html_sitemap/show_cms_pages,1
2706,default,0,mageworx_seo/html_sitemap/show_links,1
2707,default,0,mageworx_seo/html_sitemap/additional_links,NULL
2708,default,0,mageworx_seo/html_sitemap/show_custom_links,1
2709,default,0,mageworx_seo/html_sitemap/title,Sitemap
2710,default,0,mageworx_seo/html_sitemap/meta_description,"Sitemap Tree: Categories - Products"
2711,default,0,mageworx_seo/html_sitemap/meta_keywords,"sitemap, categories, products, pages"
2712,default,0,mageworx_seo/xml_sitemap/homepage_optimize,1
2713,default,0,mageworx_seo/xml_sitemap/enable_additional_links,0
2714,default,0,mageworx_seo/xml_sitemap/additional_links,NULL
2715,default,0,mageworx_seo/common_sitemap/trailing_slash_home_page,0
2716,default,0,mageworx_seo/common_sitemap/trailing_slash,1
