config_id,scope,scope_id,path,value
2412,default,0,admin/security/session_lifetime,31536000
2644,default,0,carriers/amstrates/active,1
2645,default,0,carriers/amstrates/title,Expedited Shipping
2646,default,0,carriers/amstrates/sallowspecific,0
2647,default,0,carriers/amstrates/specificcountry,UL
2648,default,0,carriers/amstrates/specificerrmsg,This shipping method is currently unavailable. If you would like to ship using this shipping method, please contact us.
2649,default,0,carriers/amstrates/allow_promo,1
2650,default,0,carriers/amstrates/ignore_virtual,1
2651,default,0,carriers/amstrates/numeric_zip,1
2652,default,0,carriers/amstrates/after_discount,0
2653,default,0,carriers/amstrates/including_tax,0
2654,default,0,carriers/amstrates/sort_order,100
2655,default,0,carriers/amstrates/dont_split,0
2656,default,0,carriers/amstrates/showmethod,0
2657,default,0,carriers/amstrates/configurable_child,0
2658,default,0,carriers/amstrates/bundle_child,0
2659,default,0,carriers/tablerate/title,"Standard Shipping"
2659,default,0,carriers/tablerate/name,"Ground Shipping (FedEx or USPS)"
2659,stores,1,carriers/tablerate/name,"Ground Shipping (FedEx or USPS)"