<svg xmlns="http://www.w3.org/2000/svg" width="52" height="43" viewBox="0 0 52 43">
    <g fill="none" fill-rule="evenodd">
        <path fill="#8CD600" fill-rule="nonzero" d="M52 14.604c0 1.545-.252 3.069-.74 4.534C48.966 29.58 29.132 42.212 28.29 42.749a1.62 1.62 0 0 1-.861.251c-.301 0-.601-.076-.865-.25-.227-.15-5.815-3.697-11.48-8.574a1.632 1.632 0 0 1-.18-2.283 1.617 1.617 0 0 1 2.27-.183c4.222 3.63 8.49 6.565 10.263 7.747 5.956-3.907 19.107-13.849 20.719-21.18.42-1.296.611-2.474.611-3.67 0-4.162-2.252-8-5.88-10.01-4.631-2.585-10.83-1.393-14.22 2.717-.608.742-1.86.742-2.48 0-3.4-4.113-9.595-5.296-14.22-2.721a11.437 11.437 0 0 0-5.891 10.008c0 1.188.2 2.37.572 3.513.239 1.07.696 2.115 1.278 3.2H4.33c-.335-.805-.606-1.585-.774-2.34-.449-1.31-.692-2.837-.692-4.374 0-5.341 2.887-10.259 7.552-12.845C15.82-1.252 22.97-.306 27.434 3.915c4.453-4.222 11.598-5.167 17.01-2.16A14.688 14.688 0 0 1 52 14.604z"/>
        <path stroke="#8CD600" stroke-width="2" d="M7 25H2a1 1 0 0 0-1 1v3a1 1 0 0 0 1 1h5v5a1 1 0 0 0 1 1h3a1 1 0 0 0 1-1v-5h5a1 1 0 0 0 1-1v-3a1 1 0 0 0-1-1h-5v-5a1 1 0 0 0-1-1H8a1 1 0 0 0-1 1v5z"/>
    </g>
</svg>
