<svg xmlns="http://www.w3.org/2000/svg" width="114" height="24" viewBox="0 0 114 24">
    <path fill="#8CD600" fill-rule="evenodd" d="M17.49 12.976H0v10.431h4.251v-6.18h12.871l4.297 6.18h5.173l-6.098-8.803c-.704-1.124-2.049-1.628-3.004-1.628zM0 10.448h4.25V.02H0v10.43zM20.128.02l-7.073 10.429h3.143c.957 0 2.298-.5 2.993-1.61L25.303.02h-5.175zM61.932 0a2.745 2.745 0 0 0-2.74 2.74v7.69h4.25V4.252h16.593v6.178h4.252V2.74c0-1.51-1.229-2.74-2.74-2.74H61.931zm47.813 10.448h4.25V.02h-4.25v10.43zm-20.826 0h4.25V.02h-4.25v10.43zm-38.375 0h4.251V.02h-4.25v10.43zm-20.843 0h4.251V.02h-4.25v10.43zM80.47 23.407h5.174l-6.098-8.803c-.706-1.125-2.05-1.629-3.002-1.629H59.192v10.432h4.25v-6.18h12.784l4.243 6.18zm29.278-10.432v6.181h-16.59v-6.18h-4.25v7.689a2.744 2.744 0 0 0 2.739 2.742h19.612A2.747 2.747 0 0 0 114 20.665v-7.69h-4.253zm-54.951 0v7.69a2.746 2.746 0 0 1-2.74 2.742H32.442c-1.51 0-2.74-1.23-2.74-2.742v-7.69h4.25v6.181h16.592v-6.18h4.25z"/>
</svg>
