<svg xmlns="http://www.w3.org/2000/svg" width="28" height="28" viewBox="0 0 28 28">
    <path fill="none" fill-rule="nonzero" stroke="#253746" d="M25.858 3.977l-.15-.15-2.447-2.446c-.499-.5-1.248-.5-1.697-.05-1.997 2.047-2.996 3.046-4.993 5.093-.45.449-.4 1.298.2 1.847l2.846 2.846c-3.345 3.644-5.093 5.392-8.737 8.737l-2.746-2.746c-.55-.55-1.348-.6-1.798-.15-1.997 2.047-2.995 3.046-4.992 5.093-.45.449-.45 1.198-.05 1.647.898.899 1.348 1.348 2.246 2.297 1.348 1.348 3.795 1.548 5.392.45 8.039-5.642 11.633-9.137 17.375-17.076 1.098-1.547.849-3.944-.45-5.392z"/>
</svg>
