<svg xmlns="http://www.w3.org/2000/svg" width="37" height="37" viewBox="0 0 37 37">
    <g fill="none" fill-rule="nonzero">
        <path stroke="#253746" d="M18.431 35.866c9.614 0 17.435-7.82 17.435-17.433S28.045 1 18.431 1C8.82 1 1 8.82 1 18.433s7.82 17.433 17.431 17.433z"/>
        <path fill="#253746" d="M18.773 25.074a.923.923 0 0 0 0 1.846.926.926 0 0 0 .927-.924.925.925 0 0 0-.927-.922zM14.66 15.336a.437.437 0 0 0 .436-.437 3.469 3.469 0 0 1 3.46-3.47 3.473 3.473 0 0 1 3.469 3.47 3.47 3.47 0 0 1-3.47 3.462.437.437 0 0 0-.436.437v2.73a.437.437 0 0 0 .874 0v-2.315a4.344 4.344 0 0 0 3.905-4.314 4.348 4.348 0 0 0-4.342-4.343 4.343 4.343 0 0 0-4.334 4.343c0 .241.196.437.437.437z"/>
    </g>
</svg>
