<svg xmlns="http://www.w3.org/2000/svg" width="28" height="28" viewBox="0 0 28 28">
    <path fill="none" fill-rule="nonzero" stroke="#8CD600" d="M26.438 12.897C25.972 6.22 20.381 1 13.733 1c-.714 0-1.429.062-2.174.186C5.222 2.274.593 8.176 1.029 14.606c.217 3.292 1.646 6.306 4.069 8.511-.528.87-.963 1.46-1.864 2.237-.31.248-1.336.807-1.18 1.18.123.373 1.397.466 1.801.466h.186c1.43 0 3.635-.342 5.281-1.274 1.46.528 2.951.808 4.411.808.746 0 1.491-.062 2.268-.186 6.399-1.212 10.872-6.99 10.437-13.45z"/>
</svg>
