<svg xmlns="http://www.w3.org/2000/svg" xmlns:xlink="http://www.w3.org/1999/xlink" width="39" height="12" viewBox="0 0 39 12">
  <defs>
    <polygon id="amazon-a" points="18.834 4.322 .006 4.322 .006 .01 18.834 .01"/>
    <polygon id="amazon-c" points="10.773 .063 .007 .063 .007 7.069 21.54 7.069 21.54 .063"/>
  </defs>
  <g fill="none" fill-rule="evenodd">
    <g transform="translate(5.467 7.67)">
      <mask id="amazon-b" fill="#fff">
        <use xlink:href="#amazon-a"/>
      </mask>
      <path fill="#8E9499" d="M18.667271,1.72824742 C16.4068505,3.42668041 13.13,4.32989691 10.3081495,4.32989691 C6.35347664,4.32989691 2.79208411,2.84140206 0.0971962617,0.363587629 C-0.114327103,0.168989691 0.0743551402,-0.0966185567 0.328766355,0.0539381443 C3.23627103,1.77674227 6.83192523,2.81430928 10.5456729,2.81430928 C13.050785,2.81430928 15.8045981,2.28494845 18.3386262,1.19047423 C18.720729,1.0254433 19.0411121,1.44680412 18.667271,1.72824742" mask="url(#amazon-b)"/>
    </g>
    <path fill="#8E9499" d="M25.0750561,8.30486598 C24.7858972,7.92804124 23.1640561,8.12635052 22.4353271,8.21517526 C22.2146916,8.24214433 22.1805514,8.04569072 22.3793178,7.90354639 C23.6733645,6.97818557 25.7933364,7.24527835 26.0396075,7.55517526 C26.2878224,7.8676701 25.9743645,10.032 24.7620841,11.0647423 C24.5754673,11.2235876 24.3979626,11.1388454 24.4808224,10.9291546 C24.7537009,10.2352577 25.3645794,8.68206186 25.0750561,8.30486598"/>
    <path fill="#A7AFB5" d="M22.4867196 1.36663918L22.4867196.467505155C22.4875701.330556701 22.5886542.239505155 22.7106355.239876289L26.6683458.239505155C26.7949439.239505155 26.896514.333154639 26.896514.466391753L26.896514 1.23748454C26.8952991 1.3668866 26.7882617 1.53550515 26.5986075 1.80346392L24.5484953 4.78391753C25.3092991 4.76573196 26.1143271 4.88202062 26.8058785 5.27764948 26.961757 5.36684536 27.0035514 5.49884536 27.0158224 5.62849485L27.0158224 6.588C27.0158224 6.72 26.8735514 6.87315464 26.7242336 6.79336082 25.506243 6.14362887 23.8897477 6.07274227 22.5426075 6.80140206 22.4049533 6.876 22.2609813 6.72519588 22.2609813 6.59282474L22.2609813 5.68094845C22.2609813 5.53484536 22.2637757 5.2854433 22.4083551 5.06301031L24.7834673 1.59327835 22.7154953 1.59303093C22.5890187 1.59303093 22.4875701 1.50136082 22.4867196 1.36663918M8.05015888 6.98239175L6.84614019 6.98239175C6.73157009 6.97484536 6.64008411 6.88725773 6.63072897 6.77517526L6.63170093.482845361C6.63170093.356907216 6.73557944.256453608 6.8641215.256453608L7.98540187.256082474C8.10264486.26214433 8.19680374.35257732 8.20409346.467505155L8.20409346 1.28894845 8.22681308 1.28894845C8.51900935.494474227 9.06974766.123587629 9.81135514.123587629 10.5643832.123587629 11.036514.494474227 11.3736636 1.28894845 11.6659813.494474227 12.3291028.123587629 13.0371776.123587629 13.5429626.123587629 14.0935794.335505155 14.430729.812164948 14.8128318 1.34202062 14.7344673 2.1097732 14.7344673 2.7851134L14.7332523 6.756C14.7332523 6.88156701 14.6294953 6.98239175 14.5009533 6.98239175L13.298514 6.98239175C13.1775047 6.97459794 13.0824953 6.87723711 13.0824953 6.75649485L13.0821308 3.42049485C13.0821308 3.15612371 13.1046075 2.49389691 13.0482336 2.24239175 12.9584486 1.81843299 12.688729 1.69917526 12.3404019 1.69917526 12.0480841 1.69917526 11.7445888 1.89785567 11.620785 2.21554639 11.4973458 2.53348454 11.5085234 3.06296907 11.5085234 3.42049485L11.5085234 6.756C11.5085234 6.88156701 11.4046449 6.98239175 11.2763458 6.98239175L10.073785 6.98239175C9.9527757 6.97459794 9.85752336 6.87723711 9.85752336 6.75649485L9.85630841 3.42049485C9.85630841 2.71880412 9.96869159 1.68630928 9.11470093 1.68630928 8.24904673 1.68630928 8.28294393 2.6923299 8.28294393 3.42049485L8.28245794 6.756C8.28245794 6.88156701 8.17845794 6.98239175 8.05015888 6.98239175M30.3145421 1.40820619C29.4267757 1.40820619 29.3706449 2.63925773 29.3706449 3.40738144 29.3706449 4.17538144 29.3594673 5.81715464 30.3036075 5.81715464 31.2366916 5.81715464 31.2814019 4.49307216 31.2814019 3.68573196 31.2814019 3.15612371 31.2589252 2.52037113 31.1013458 2.01723711 30.9666075 1.58004124 30.6966449 1.40820619 30.3145421 1.40820619zM30.3036075.123587629C32.0906822.123587629 33.0570561 1.68630928 33.0570561 3.67237113 33.0570561 5.592 31.9895981 7.11513402 30.3036075 7.11513402 28.5501869 7.11513402 27.5948692 5.55228866 27.5948692 3.60606186 27.5948692 1.64635052 28.5613645.123587629 30.3036075.123587629L30.3036075.123587629zM35.3747009 6.98239175L34.1750561 6.98239175C34.0545327 6.97459794 33.9590374 6.87723711 33.9590374 6.75649485L33.956972.461814433C33.9671776.346639175 34.0670467.256453608 34.1882991.256453608L35.3050841.256082474C35.4102991.261773196 35.4970467.334639175 35.5191589.432247423L35.5191589 1.39472165 35.541757 1.39472165C35.8791495.533814433 36.3507944.123587629 37.1825514.123587629 37.7219907.123587629 38.2503738.32214433 38.5875234.865237113 38.9021963 1.36824742 38.9021963 2.21554639 38.9021963 2.82482474L38.9021963 6.78445361C38.8888318 6.89579381 38.7904206 6.98239175 38.6714766 6.98239175L37.4645421 6.98239175C37.3530093 6.97521649 37.2631028 6.89171134 37.2502243 6.78445361L37.2502243 3.36804124C37.2502243 2.67934021 37.3289533 1.67282474 36.4971963 1.67282474 36.2048785 1.67282474 35.9351589 1.87150515 35.8002991 2.17595876 35.6316636 2.56008247 35.6090654 2.94383505 35.6090654 3.36804124L35.6090654 6.756C35.607 6.88156701 35.503 6.98239175 35.3747009 6.98239175"/>
    <mask id="amazon-d" fill="#fff">
      <use xlink:href="#amazon-c"/>
    </mask>
    <path fill="#A7AFB5" d="M20.5454673 6.96668041C20.4660093 7.03954639 20.3510748 7.04437113 20.2612897 6.99525773 19.8614486 6.65690722 19.7897664 6.50053608 19.5709533 6.17826804 18.9101402 6.86375258 18.4421402 7.06948454 17.5859626 7.06948454 16.5723271 7.06948454 15.7838224 6.43237113 15.7838224 5.15863918 15.7838224 4.16338144 16.3132991 3.48668041 17.067785 3.1548866 17.7209439 2.86292784 18.6334953 2.80985567 19.331972 2.72993814L19.331972 2.57084536C19.331972 2.27876289 19.3544486 1.93410309 19.1854486 1.68185567 19.0388037 1.45608247 18.7574206 1.36329897 18.5095701 1.36329897 18.0503178 1.36329897 17.642215 1.60280412 17.5417383 2.09938144 17.5208411 2.20985567 17.4417477 2.31934021 17.3327664 2.32503093L16.1656822 2.19624742C16.067028 2.17348454 15.9576822 2.09307216 15.9858692 1.93979381 16.2543738.498185567 17.5328692.0628453608 18.6784486.0628453608 19.2644206.0628453608 20.0300841.221814433 20.4918879.673237113 21.0777383 1.2305567 21.021243 1.97381443 21.021243 2.78350515L21.021243 4.6931134C21.021243 5.268 21.255729 5.51987629 21.475757 5.82927835 21.552785 5.9411134 21.5699159 6.07360825 21.4717477 6.15525773 21.2259626 6.36519588 20.7889439 6.75154639 20.5486262 6.96952577L20.5454673 6.96668041zM19.331972 3.9774433C19.331972 4.45546392 19.343028 4.85319588 19.1064766 5.27814433 18.9151215 5.62292784 18.6107757 5.83546392 18.2730187 5.83546392 17.8113364 5.83546392 17.5410093 5.47694845 17.5410093 4.94610309 17.5410093 3.90197938 18.4608505 3.71220619 19.331972 3.71220619L19.331972 3.9774433 19.331972 3.9774433zM4.76176636 6.96668041C4.68230841 7.03954639 4.56713084 7.04437113 4.47734579 6.99525773 4.07726168 6.65690722 4.00557944 6.50053608 3.78725234 6.17826804 3.12607477 6.86375258 2.65807477 7.06948454 1.80214019 7.06948454.788383178 7.06948454 0 6.43237113 0 5.15863918 0 4.16338144.529233645 3.48668041 1.28396262 3.1548866 1.9371215 2.86292784 2.8496729 2.80985567 3.54778505 2.72993814L3.54778505 2.57084536C3.54778505 2.27876289 3.57050467 1.93410309 3.40162617 1.68185567 3.25498131 1.45608247 2.97335514 1.36329897 2.72574766 1.36329897 2.26649533 1.36329897 1.85802804 1.60280412 1.75803738 2.09938144 1.73714019 2.20985567 1.65792523 2.31934021 1.54882243 2.32503093L.381859813 2.19624742C.283205607 2.17348454.173616822 2.09307216.202046729 1.93979381.470186916.498185567 1.74868224.0628453608 2.89462617.0628453608 3.48035514.0628453608 4.24626168.221814433 4.70806542.673237113 5.2936729 1.2305567 5.23754206 1.97381443 5.23754206 2.78350515L5.23754206 4.6931134C5.23754206 5.268 5.47178505 5.51987629 5.69181308 5.82927835 5.76847664 5.9411134 5.78609346 6.07360825 5.68804673 6.15525773 5.44201869 6.36519588 5.0048785 6.75154639 4.76456075 6.96952577L4.76176636 6.96668041zM3.54778505 3.9774433C3.54778505 4.45546392 3.55908411 4.85319588 3.32265421 5.27814433 3.13129907 5.62292784 2.82707477 5.83546392 2.48907477 5.83546392 2.02751402 5.83546392 1.75694393 5.47694845 1.75694393 4.94610309 1.75694393 3.90197938 2.67702804 3.71220619 3.54778505 3.71220619L3.54778505 3.9774433 3.54778505 3.9774433z" mask="url(#amazon-d)"/>
  </g>
</svg>
