<svg xmlns="http://www.w3.org/2000/svg" width="65" height="9" viewBox="0 0 65 9">
  <g fill="#A7AFB5" fill-rule="evenodd">
    <path fill-rule="nonzero" d="M0 8.625L0 7.5.902777778 7.5.902777778 2.025 0 2.025 0 .9 3.575.9C5.2.9 6.21111111 1.65 6.21111111 3 6.21111111 3.8625 5.70555556 4.3875 5.05555556 4.65 5.99444444 4.9125 6.64444444 5.55 6.64444444 6.45 6.64444444 7.875 5.56111111 8.6625 3.75555556 8.6625L0 8.6625 0 8.625 0 8.625zM2.13055556 2.025L2.13055556 4.125 3.46666667 4.125C4.47777778 4.125 4.98333333 3.75 4.98333333 3.075 4.98333333 2.3625 4.44166667 2.025 3.43055556 2.025L2.13055556 2.025 2.13055556 2.025 2.13055556 2.025zM2.13055556 7.5L3.64722222 7.5C4.83888889 7.5 5.41666667 7.125 5.41666667 6.375 5.41666667 5.625 4.80277778 5.25 3.575 5.25L2.13055556 5.25 2.13055556 7.5 2.13055556 7.5 2.13055556 7.5zM13.1444444 4.6125C13 4.1625 12.675 3.9 12.2416667 3.9 11.2305556 3.9 10.2555556 4.65 10.2555556 6.0375L10.2555556 7.5 12.2416667 7.5 12.2416667 8.625 7.8 8.625 7.8 7.5 9.06388889 7.5 9.06388889 4.0875 8.08888889 4.0875 8.08888889 2.9625 10.2555556 2.9625 10.2555556 3.9375C10.6166667 3.2625 11.3388889 2.775 12.3138889 2.775 13.3972222 2.775 14.0833333 3.4125 14.3 4.3125L13.1444444 4.6125M19.1388889 5.325L19.1388889 4.9875C19.1388889 4.2 18.4888889 3.8625 17.8027778 3.8625 17.1527778 3.8625 16.575 4.125 16.1416667 4.5375L15.3833333 3.7125C15.925 3.225 16.6833333 2.775 17.8388889 2.775 19.2833333 2.775 20.3666667 3.525 20.3666667 4.9875L20.3666667 7.5 21.1972222 7.5 21.1972222 8.625 19.1388889 8.625 19.1388889 8.025C18.8138889 8.5125 18.0194444 8.8125 17.1888889 8.8125 15.9972222 8.8125 14.9861111 8.2125 14.9861111 7.0125 14.9861111 5.625 16.3583333 5.0625 17.6222222 5.0625 18.2361111 5.1 18.7416667 5.2125 19.1388889 5.325M19.1388889 6.3375C18.7777778 6.1875 18.2 6.1125 17.6944444 6.1125 16.9361111 6.1125 16.2138889 6.3375 16.2138889 7.05 16.2138889 7.575 16.6833333 7.8 17.2972222 7.8 18.1638889 7.8 19.1388889 7.35 19.1388889 6.525L19.1388889 6.3375M28.3111111 7.5L28.3111111 8.625 22.5694444 8.625 22.5694444 7.5 24.9527778 7.5 24.9527778 4.0875 23.1472222 4.0875 23.1472222 2.9625 26.1444444 2.9625 26.1444444 7.5 28.3111111 7.5 28.3111111 7.5 28.3111111 7.5zM24.8083333.075L26.1444444.075 26.1444444 1.8 24.8083333 1.8 24.8083333.075 24.8083333.075zM29.7194444 7.5L30.5861111 7.5 30.5861111 4.0875 29.7555556 4.0875 29.7555556 2.9625 31.7416667 2.9625 31.7416667 3.7125C32.1027778 3.15 32.825 2.775 33.6916667 2.775 34.9555556 2.775 35.8583333 3.5625 35.8583333 4.875L35.8583333 7.5 36.725 7.5 36.725 8.625 33.7638889 8.625 33.7638889 7.5 34.6666667 7.5 34.6666667 5.175C34.6666667 4.2 34.0527778 3.9 33.5111111 3.9 32.6083333 3.9 31.7055556 4.575 31.7055556 5.5875L31.7055556 7.5 32.6083333 7.5 32.6083333 8.625 29.6472222 8.625 29.6472222 7.5M38.35 4.0875L36.8694444 4.0875 36.8694444 2.9625 38.35 2.9625 38.35.9 39.5416667.9 39.5416667 2.9625 42.3222222 2.9625 42.3222222 4.0875 39.5416667 4.0875 39.5416667 6.4875C39.5416667 7.3875 40.1555556 7.725 40.8777778 7.725 41.5277778 7.725 42.1055556 7.35 42.5027778 6.9375L43.2972222 7.7625C42.7916667 8.325 41.9611111 8.85 40.8777778 8.85 39.4333333 8.85 38.3861111 8.0625 38.3861111 6.525L38.3861111 4.0875M49.6888889 4.6125C49.5444444 4.1625 49.2194444 3.9 48.7861111 3.9 47.775 3.9 46.8 4.65 46.8 6.0375L46.8 7.5 48.7861111 7.5 48.7861111 8.625 44.3805556 8.625 44.3805556 7.5 45.6444444 7.5 45.6444444 4.0875 44.6694444 4.0875 44.6694444 2.9625 46.8361111 2.9625 46.8361111 3.9375C47.1972222 3.2625 47.9194444 2.775 48.8944444 2.775 49.9777778 2.775 50.6638889 3.4125 50.8805556 4.3125L49.6888889 4.6125M57.5972222 7.7625C57.0194444 8.3625 55.9722222 8.8125 54.8166667 8.8125 52.9027778 8.8125 51.5666667 7.5375 51.5666667 5.775 51.5666667 4.0125 52.8666667 2.7375 54.6722222 2.7375 56.4777778 2.7375 57.7055556 4.125 57.7055556 6L57.7055556 6.1875 52.7944444 6.1875C53.0111111 7.125 53.7694444 7.725 54.8166667 7.725 55.6833333 7.725 56.4055556 7.3875 56.8027778 6.9375L57.5972222 7.7625 57.5972222 7.7625 57.5972222 7.7625zM52.8666667 5.2125L56.3694444 5.2125C56.1888889 4.3875 55.4666667 3.8625 54.6722222 3.8625 53.7333333 3.825 53.0472222 4.3875 52.8666667 5.2125L52.8666667 5.2125 52.8666667 5.2125zM64.8916667 7.7625C64.3138889 8.3625 63.2666667 8.8125 62.1111111 8.8125 60.1972222 8.8125 58.8611111 7.5375 58.8611111 5.775 58.8611111 4.0125 60.1611111 2.7375 61.9666667 2.7375 63.7722222 2.7375 65 4.125 65 6L65 6.1875 60.0888889 6.1875C60.3055556 7.125 61.0638889 7.725 62.1111111 7.725 62.9777778 7.725 63.7 7.3875 64.0972222 6.9375L64.8916667 7.7625 64.8916667 7.7625 64.8916667 7.7625zM60.1611111 5.2125L63.6638889 5.2125C63.4833333 4.3875 62.7611111 3.8625 61.9666667 3.8625 61.0638889 3.825 60.3416667 4.3875 60.1611111 5.2125L60.1611111 5.2125 60.1611111 5.2125z"/>
  </g>
</svg>
