<svg xmlns="http://www.w3.org/2000/svg" width="46" height="12" viewBox="0 0 46 12">
  <g fill="none" fill-rule="evenodd">
    <path fill="#8E9499" d="M17.0442725 2.66666667L14.5348804 2.66666667C14.3631408 2.66666667 14.2170954 2.80191157 14.1902707 2.98572877L13.1753523 9.96053336C13.1552081 10.0982292 13.2535653 10.2222222 13.3823443 10.2222222L14.5803077 10.2222222C14.7520473 10.2222222 14.8980927 10.0870887 14.9249174 9.90293731L15.1986113 8.02165177C15.2250249 7.83750035 15.3713787 7.70225545 15.54281 7.70225545L16.3371699 7.70225545C17.990125 7.70225545 18.9440968 6.83519526 19.19333 5.11711712 19.3055619 4.36536045 19.1980577 3.7748059 18.8732838 3.36116149 18.5166492 2.90696589 17.8840596 2.66666667 17.0442725 2.66666667zM17.3336912 5.21415032C17.1964845 6.19016398 16.5084984 6.19016398 15.8433286 6.19016398L15.464597 6.19016398 15.7302744 4.36736573C15.746102 4.25718681 15.8340787 4.17608443 15.9368552 4.17608443L16.1104448 4.17608443C16.5635866 4.17608443 16.9910342 4.17608443 17.211901 4.4560436 17.3436605 4.62303875 17.3839489 4.87124768 17.3336912 5.21415032L17.3336912 5.21415032zM24.8762463 5.23482303L23.63962 5.23482303C23.5342762 5.23482303 23.4432109 5.31669783 23.4270285 5.42792609L23.3722413 5.79568789 23.2858298 5.66241641C23.0181338 5.2492186 22.4210798 5.11111111 21.825295 5.11111111 20.4586812 5.11111111 19.2915437 6.21169734 19.0642507 7.75550963 18.9461091 8.5255601 19.1140669 9.26198342 19.5249712 9.77550035 19.9018186 10.24763 20.4410181 10.4444444 21.0824942 10.4444444 22.1836331 10.4444444 22.7941196 9.69160118 22.7941196 9.69160118L22.739015 10.0570012C22.7182847 10.1966832 22.8195036 10.3219696 22.9512891 10.3219696L24.0651201 10.3219696C24.2422796 10.3219696 24.391834 10.1854367 24.4197564 9.99953139L25.0880973 5.49900421C25.1092507 5.36044686 25.0083491 5.23482303 24.8762463 5.23482303zM23.1524577 7.79408526C23.0331527 8.54524154 22.4724825 9.04953631 21.7572869 9.04953631 21.3982083 9.04953631 21.1112628 8.92706151 20.9269111 8.69504543 20.744146 8.46460386 20.6747629 8.13654235 20.7328289 7.77114232 20.8443072 7.02639656 21.4143907 6.50556938 22.1186923 6.50556938 22.4698383 6.50556938 22.7553031 6.62973116 22.9433566 6.86365915 23.1317274 7.10017385 23.2065046 7.43025975 23.1524577 7.79408526L23.1524577 7.79408526zM31.1525915 5.11111111L29.9353207 5.11111111C29.8191879 5.11111111 29.7100997 5.17395379 29.6443153 5.27910527L27.9655175 7.97208893 27.2539062 5.38414393C27.209152 5.22224224 27.0719889 5.11111111 26.9165927 5.11111111L25.7205593 5.11111111C25.5751084 5.11111111 25.4742044 5.2657921 25.5204089 5.41483192L26.861168 9.69964206 25.600697 11.6374982C25.5015542 11.7901483 25.6014222 12 25.7726689 12L26.9883857 12C27.1037934 12 27.211742 11.9387369 27.2772156 11.835729L31.3255993 5.47158213C31.4225666 5.31938326 31.3230094 5.11111111 31.1525915 5.11111111"/>
    <path fill="#A7AFB5" d="M35.2352619 2.66666667L32.7254432 2.66666667C32.5541066 2.66666667 32.4080542 2.80191157 32.3812283 2.98572877L31.3662621 9.96053336C31.3461169 10.0982292 31.4444787 10.2222222 31.5725443 10.2222222L32.8604979 10.2222222C32.9800327 10.2222222 33.0824029 10.1276399 33.1011091 9.99874506L33.3892054 8.02165177C33.4156202 7.83750035 33.5620837 7.70225545 33.7334203 7.70225545L34.5275093 7.70225545C36.1808507 7.70225545 37.1345593 6.83519526 37.3841125 5.11711712 37.4967609 4.36536045 37.3885321 3.7748059 37.0637429 3.36116149 36.7073998 2.90696589 36.0751915 2.66666667 35.2352619 2.66666667zM35.5247971 5.21415032C35.3878923 6.19016398 34.6998737 6.19016398 34.0342614 6.19016398L33.6560259 6.19016398 33.9220241 4.36736573C33.9377497 4.25718681 34.0251138 4.17608443 34.1282036 4.17608443L34.3018013 4.17608443C34.7545534 4.17608443 35.1824323 4.17608443 35.4033095 4.4560436 35.5350753 4.62303875 35.5750572 4.87124768 35.5247971 5.21415032L35.5247971 5.21415032zM43.0658479 5.23482303L41.829887 5.23482303C41.7237964 5.23482303 41.6335717 5.31669783 41.6177057 5.42792609L41.5629152 5.79568789 41.4760753 5.66241641C41.2083631 5.2492186 40.611696 5.11111111 40.0157692 5.11111111 38.6491783 5.11111111 37.4823931 6.21169734 37.2550863 7.75550963 37.1372549 8.5255601 37.3044825 9.26198342 37.7153059 9.77550035 38.0930223 10.24763 38.6314084 10.4444444 39.2730292 10.4444444 40.3741292 10.4444444 40.9847584 9.69160118 40.9847584 9.69160118L40.9296505 10.0570012C40.9089189 10.1966832 41.0100382 10.3219696 41.1426779 10.3219696L42.2562591 10.3219696C42.4325832 10.3219696 42.582887 10.1854367 42.6104939 9.99953139L43.2791926 5.49900421C43.2996069 5.36044686 43.1983818 5.23482303 43.0658479 5.23482303zM41.3420605 7.79408526C41.2234887 8.54524154 40.6619383 9.04953631 39.9466993 9.04953631 39.5883394 9.04953631 39.300636 8.92706151 39.1162732 8.69504543 38.9336027 8.46460386 38.8648501 8.13654235 38.9221792 7.77114232 39.0344046 7.02639656 39.6037823 6.50556938 40.3081266 6.50556938 40.6592939 6.50556938 40.9447761 6.62973116 41.132841 6.86365915 41.3219636 7.10017385 41.3967453 7.43025975 41.3420605 7.79408526L41.3420605 7.79408526zM44.358378 2.8583851L43.284558 9.96054494C43.2635552 10.0982346 43.3659973 10.2222222 43.4995149 10.2222222L44.5791213 10.2222222C44.7586092 10.2222222 44.9107721 10.0870947 44.9383115 9.90295143L45.9972366 2.92878955C46.0183466 2.79109984 45.9157973 2.66666667 45.7822798 2.66666667L44.573442 2.66666667C44.4667137 2.66700086 44.3748801 2.74821106 44.358378 2.8583851"/>
    <path fill="#8E9499" d="M2.73792445,11.5555556 L2.93343544,10.2434783 L2.49790774,10.2327463 L0.418181818,10.2327463 L1.86351803,0.550326719 C1.86802096,0.521007176 1.88257695,0.493789789 1.90383497,0.474427826 C1.92519772,0.455065864 1.95242474,0.444444444 1.9809084,0.444444444 L5.48764465,0.444444444 C6.65191418,0.444444444 7.45532089,0.700354269 7.87472181,1.20553553 C8.07138472,1.44252595 8.19662904,1.69024843 8.25726153,1.96275422 C8.32082616,2.24875807 8.32187336,2.59041373 8.25987951,3.0071938 L8.25537658,3.0375091 L8.25537658,3.30459354 L8.45203949,3.42231427 C8.61760075,3.51514105 8.74923295,3.62135525 8.85018238,3.74294837 C9.01836163,3.94564046 9.12716501,4.20320988 9.1731368,4.50846505 C9.22067938,4.82246076 9.20497148,5.19620196 9.12716501,5.6192885 C9.03742055,6.10588227 8.89238427,6.52974329 8.6964544,6.87648838 C8.51633715,7.19601608 8.28679238,7.46110901 8.01420796,7.66645645 C7.75398042,7.86162503 7.44484896,8.00977171 7.09529583,8.10459 C6.75652879,8.1977487 6.3703239,8.24477061 5.9467342,8.24477061 L5.67383562,8.24477061 C5.47874351,8.24477061 5.28920152,8.31900991 5.14039535,8.45210957 C4.9911703,8.58797523 4.89252469,8.77362879 4.8622608,8.97665279 L4.8416311,9.09481608 L4.49616202,11.4075195 L4.48055884,11.4923802 C4.47637007,11.5192657 4.46924915,11.5326531 4.45877722,11.5417256 C4.4494572,11.5500236 4.43605313,11.5555556 4.42296321,11.5555556 L2.73792445,11.5555556"/>
    <path fill="#A7AFB5" d="M8.4819572,3.11111111 C8.47178915,3.18179128 8.45997778,3.25402 8.44683122,3.32823972 C7.99327465,5.83622442 6.44146618,6.70263723 4.45962117,6.70263723 L3.45051943,6.70263723 C3.2081296,6.70263723 3.00384427,6.89211319 2.9661506,7.14961466 L2.30317332,11.6785656 C2.27862622,11.8476892 2.39961572,12 2.55799077,12 L4.34777265,12 C4.55965833,12 4.73970468,11.8341947 4.77308464,11.6091021 L4.79064763,11.5112118 L5.12763112,9.2081885 L5.14930241,9.0818712 C5.18227154,8.85600436 5.36272872,8.69008846 5.57461441,8.69008846 L5.8422703,8.69008846 C7.57628197,8.69008846 8.93376774,7.93196342 9.33052703,5.7378916 C9.49619432,4.82137218 9.41043351,4.05605745 8.97187224,3.51782628 C8.83917408,3.35556053 8.67453387,3.22083682 8.4819572,3.11111111"/>
    <path fill="#81868B" d="M8.02159387,2.85744444 C7.9518759,2.83555556 7.87998894,2.81577778 7.80624283,2.79788889 C7.73208357,2.78044444 7.65616846,2.765 7.57798105,2.75144444 C7.30437678,2.70388889 7.0045379,2.68133333 6.68342212,2.68133333 L3.97247788,2.68133333 C3.90565192,2.68133333 3.84223439,2.69755556 3.78553045,2.72688889 C3.66045126,2.79155556 3.56759726,2.91888889 3.54508094,3.07477778 L2.96833264,7.00433333 L2.9518069,7.11888889 C2.98971281,6.86022222 3.19514841,6.66988889 3.43890307,6.66988889 L4.45368675,6.66988889 C6.44669091,6.66988889 8.00723713,5.79911111 8.46334754,3.28022222 C8.47698127,3.20566667 8.488446,3.13311111 8.4986713,3.06211111 C8.38330099,2.99622222 8.25832508,2.93988889 8.12374359,2.89188889 C8.09048554,2.88 8.05619463,2.86855556 8.02159387,2.85744444"/>
    <path fill="#8E9499" d="M3.54508094,3.07477778 C3.56759726,2.91888889 3.66045126,2.79155556 3.78553045,2.72733333 C3.84264754,2.69788889 3.90565192,2.68166667 3.97247788,2.68166667 L6.68342212,2.68166667 C7.0045379,2.68166667 7.30437678,2.70433333 7.57798105,2.75188889 C7.65616846,2.76533333 7.73208357,2.78088889 7.80624283,2.79833333 C7.87998894,2.81611111 7.9518759,2.836 8.02159387,2.85777778 C8.05619463,2.86888889 8.09048554,2.88044444 8.12405345,2.89188889 C8.25863494,2.93988889 8.38371413,2.99666667 8.49908445,3.06211111 C8.63480208,2.13111111 8.4979483,1.49722222 8.03006331,0.923222222 C7.51415038,0.291222222 6.58313154,0.0207777778 5.39172903,0.0207777778 L1.93289179,0.0207777778 C1.68955027,0.0207777778 1.48194567,0.211111111 1.44434962,0.470222222 L0.00371829135,10.2938889 C-0.0246853231,10.4882222 0.114647317,10.6635556 0.296843593,10.6635556 L2.43217568,10.6635556 L3.54508094,3.07477778"/>
  </g>
</svg>
