<svg xmlns="http://www.w3.org/2000/svg" width="146" height="160" viewBox="0 0 146 160">
  <g fill="none" fill-rule="evenodd">
    <path fill="#EFEFEF" fill-rule="nonzero" d="M18.5002053,135 C18.3793786,135 18.2585848,134.996018 18.1380204,134.988062 C15.1070476,134.788033 12.8121143,132.168788 13.0121435,129.137815 L19.4796583,31.1378151 C19.6704289,28.2471348 22.0707517,26 24.9677201,26 L120.518035,26 C123.395037,26 125.785921,28.2172397 126.002438,31.0860828 L133.398664,129.086083 C133.409058,129.22381 133.414261,129.361881 133.414261,129.5 C133.414261,132.537566 130.951827,135 127.914261,135 L18.5002053,135 Z M127.914261,132 C129.294973,132 130.414261,130.880712 130.414261,129.5 C130.414261,129.458146 127.946489,96.7287643 123.010945,31.3118558 C122.912529,30.0078362 121.825763,29 120.518035,29 L24.9677201,29 C23.6509163,29 22.5598605,30.0214249 22.4731466,31.3353705 C20.6017074,59.6926366 19.198128,80.9605861 18.2624084,95.1392191 C17.7609025,102.738364 17.0086436,114.137081 16.0056318,129.33537 C15.9147094,130.713085 16.9578609,131.903651 18.3355758,131.994574 C18.3721105,131.996985 54.898339,131.998793 127.914261,132 Z"/>
    <ellipse cx="73" cy="154" fill="#F9F9F9" rx="73" ry="6"/>
    <path fill="#EFEFEF" fill-rule="nonzero" d="M49.425017,39.3556915 C47.0520312,14.8043426 54.3520852,3 71.4319748,3 C88.5447141,3 96.3391588,14.8475559 94.934421,39.4143694 C94.8871285,40.2414455 95.5192681,40.9502613 96.3463442,40.9975538 C97.1734203,41.0448463 97.8822361,40.4127067 97.9295286,39.5856306 C99.4219261,13.4857774 90.5497041,0 71.4319748,0 C52.2813956,0 43.9147829,13.5289907 46.4389326,39.6443085 C46.5186319,40.4688929 47.2516988,41.0727416 48.0762833,40.9930422 C48.9008677,40.9133428 49.5047164,40.180276 49.425017,39.3556915 Z"/>
  </g>
</svg>
