<svg xmlns="http://www.w3.org/2000/svg" width="13" height="13" viewBox="0 0 13 13">
  <g fill="none" fill-rule="evenodd">
    <circle cx="6.5" cy="6.5" r="6.5" fill="#51B5E0"/>
    <path fill="#FFF" d="M6.595,5.14 L7.365,5.14 L6.385,10 L5.625,10 L6.595,5.14 Z M7.245,4.13 C7.111666,4.13 6.99666715,4.09166705 6.9,4.015 C6.80333285,3.93833295 6.755,3.8266674 6.755,3.68 C6.755,3.5133325 6.81333275,3.37500055 6.93,3.265 C7.04666725,3.15499945 7.1816659,3.1 7.335,3.1 C7.468334,3.1 7.58333285,3.1399996 7.68,3.22 C7.77666715,3.3000004 7.825,3.4133326 7.825,3.56 C7.825,3.7266675 7.76666725,3.8633328 7.65,3.97 C7.53333275,4.0766672 7.3983341,4.13 7.245,4.13 Z"/>
  </g>
</svg>
